DS 202- Lab #4
…
bioClean %>% 
  separate(Hometown, into = c("City", "State"), sep = ",") %>% 
  group_by(State) %>% 
  summarise(Num_Players = n())

## # A tibble: 21 x 2
##    State        Num_Players
##  * <chr>              <int>
##  1 " Ariz."               4
##  2 " Ark."                1
##  3 " Australia"           1
##  4 " Calif."              2
##  5 " Fla."               14
##  6 " Ga."                 3
##  7 " Ill."                6
##  8 " Iowa"               42
##  9 " Kan."                4
## 10 " Mich"                1
## #  with 11 more rows
…
